R3 ( e d )  1.
R1 ( a b )  1.
R1 ( a bb )  1.
R1 ( aa bb )  1.
R1 ( a c )  1.
R3 ( f f )  1.
R3 ( g f )  1.
R1 ( g c )  1.
#          
 27.       
Gnucap   System status
iterations: op=2, dc=0, tran=0, fourier=0, total=2
transient timesteps: accepted=0, rejected=0, total=0
nodes: user=9, subckt=0, model=0, total=9
dctran density=33.3%, ac density=33.3%
#          
 27.       
Gnucap   System status
iterations: op=2, dc=0, tran=0, fourier=0, total=4
transient timesteps: accepted=0, rejected=0, total=0
nodes: user=9, subckt=0, model=0, total=9
dctran density=28.4%, ac density=28.4%
